…
#find out patient's age and gender
agesex <- covid %>% 
  distinct(VAERS_ID,.keep_all = TRUE) %>% #distinct patients
  select(AGE_YRS, SEX, VAX_DATE) %>% 
  filter(AGE_YRS >= 18 & AGE_YRS != 'NA', VAX_DATE >= "2020-12-01" & SEX != "U" ) #filter for age over 18, vaccination data after 2020-12-01 and filter out unknown value for sex

as <- agesex %>% 
  group_by(SEX,AGE_YRS) %>% 
  count(SEX,AGE_YRS)
as
```

```
## # A tibble: 176 x 3
## # Groups:   SEX, AGE_YRS [176]
##    SEX   AGE_YRS     n
##    <chr>   <dbl> <int>
##  1 F          18    31
##  2 F          19    74
##  3 F          20    92
##  4 F          21   115
##  5 F          22   169
##  6 F          23   190
##  7 F          24   231
##  8 F          25   316
##  9 F          26   321
## 10 F          27   339
## # … with 166 more rows
```
…
ageg$Age <- with(ageg, ifelse(`Age Group` == "Ages_18-29_yrs", "18-29",
                              ifelse(`Age Group` == "Ages_30-39_yrs", "30-39",
                                            ifelse(`Age Group` == "Ages_40-49_yrs", "40-49",
                                                   ifelse(`Age Group` == "Ages_50-64_yrs", "50-64",
                                                          ifelse(`Age Group` == "Ages_65-74_yrs", "65-74",
                                                                 ifelse(`Age Group` == "Ages_75+_yrs", "75+", "other")))))))
ageg
```

```
## # A tibble: 636 x 6
##    Date       `Age Group`  `People with at le… `Percent of age gro… Census Age  
##    <date>     <chr>                      <dbl>                <dbl>  <dbl> <chr>
##  1 2021-03-31 Ages_75+_yrs            15827616                 74.1 2.14e7 75+  
##  2 2021-03-30 Ages_75+_yrs            15755182                 73.8 2.14e7 75+  
##  3 2021-03-29 Ages_75+_yrs            15717469                 73.6 2.14e7 75+  
##  4 2021-03-28 Ages_75+_yrs            15663561                 73.4 2.14e7 75+  
##  5 2021-03-27 Ages_75+_yrs            15575262                 72.9 2.14e7 75+  
##  6 2021-03-26 Ages_75+_yrs            15462377                 72.4 2.14e7 75+  
##  7 2021-03-25 Ages_75+_yrs            15336407                 71.8 2.14e7 75+  
##  8 2021-03-24 Ages_75+_yrs            15231705                 71.3 2.14e7 75+  
##  9 2021-03-23 Ages_75+_yrs            15131315                 70.9 2.14e7 75+  
## 10 2021-03-22 Ages_75+_yrs            15049439                 70.5 2.14e7 75+  
## # … with 626 more rows
```
…
emotion <- top_td %>% 
  inner_join(nrc, by = c(term = "word")) %>% 
  group_by(sentiment) %>% 
  count(term) %>% 
  arrange(desc(n)) %>% 
  mutate(rank = row_number()) %>% 
  mutate(number =  n/1000) %>% 
  filter(rank <= 10)
emotion
```

```
## # A tibble: 100 x 5
## # Groups:   sentiment [10]
##    sentiment    term          n  rank number
##    <chr>        <chr>     <int> <int>  <dbl>
##  1 fear         injection  7068     1   7.07
##  2 fear         pain       6282     2   6.28
##  3 negative     pain       6282     1   6.28
##  4 sadness      pain       6282     1   6.28
##  5 negative     headache   6219     2   6.22
##  6 fear         fever      5571     3   5.57
##  7 negative     fatigue    3588     3   3.59
##  8 disgust      nausea     3215     1   3.22
##  9 negative     nausea     3215     4   3.22
## 10 anticipation unknown    2966     1   2.97
## # … with 90 more rows
```
…
